[{"iban":"FR71 6239 5132 35BN VUL5 7JKH R09","userid":19,"balance":126965.87},
{"iban":"FI93 0567 2209 4186 09","userid":18,"balance":232497.88},
{"iban":"LB91 6849 TQ40 WADN C5MU HTTK MN3I","userid":8,"balance":41079.03},
{"iban":"RO82 IXWM SSNL 2KM6 AMUT LDEV","userid":16,"balance":156768.84},
{"iban":"EE44 2675 6400 0676 4843","userid":13,"balance":756776.32},
{"iban":"AE97 4507 0851 4874 3659 824","userid":21,"balance":967204.0},
{"iban":"BR50 1436 2981 4661 8923 9381 985W V","userid":3,"balance":607908.19},
{"iban":"GI16 FZNY DODU 1D0G SWQA 0FW","userid":15,"balance":609394.48},
{"iban":"TN61 4286 4171 9252 7526 0770","userid":4,"balance":38831.62},
{"iban":"FR81 3438 1337 5522 ATFF TVMQ H11","userid":17,"balance":218934.06},
{"iban":"CH88 8569 9Y4A ALPO WWTX Z","userid":27,"balance":851803.91},
{"iban":"CZ12 0422 5110 7236 4323 0111","userid":18,"balance":409630.01},
{"iban":"MT92 MDAV 5758 7BLH 8CK7 EKQJ 0GLO UQI","userid":15,"balance":908267.81},
{"iban":"FR92 6158 7507 85Z2 FAEN IORK 366","userid":23,"balance":889273.36},
{"iban":"AE72 5263 0578 1181 6112 224","userid":2,"balance":515406.27},
{"iban":"PK56 GQBE TDWN AHSH OYAZ 5CJA","userid":5,"balance":375397.87},
{"iban":"SI10 7376 2595 3542 260","userid":23,"balance":108847.49},
{"iban":"FR71 7262 0718 01HW S5J3 JINE M11","userid":11,"balance":579554.53},
{"iban":"BH97 QBVK SAI7 0UAO YCNR XB","userid":27,"balance":168141.08},
{"iban":"SI67 5190 1011 6265 843","userid":9,"balance":749606.78},
{"iban":"MR26 4620 5660 0020 4599 9307 223","userid":10,"balance":722355.06},
{"iban":"SM22 T808 5046 067G IOU1 FN7I CQQ","userid":18,"balance":306924.25},
{"iban":"CH90 9536 2SIY ZJE3 MIVL 9","userid":13,"balance":385971.09},
{"iban":"FR90 6339 9930 82PP LR63 K8LZ D31","userid":3,"balance":802591.88},
{"iban":"BH78 EJRO UQEX WDWC WATQ XY","userid":11,"balance":556567.64},
{"iban":"ME51 7257 0878 4764 6392 72","userid":26,"balance":410122.47},
{"iban":"IL93 0493 3816 2776 5932 399","userid":29,"balance":749576.0},
{"iban":"EE77 0717 2543 1129 5611","userid":17,"balance":512098.43},
{"iban":"CH33 1715 7YET ESBR 5Z1O Q","userid":3,"balance":783485.76},
{"iban":"FR79 7474 9020 35MW DR7J JJIU J75","userid":21,"balance":883899.45},
{"iban":"NO20 2027 4802 910","userid":3,"balance":410380.98},
{"iban":"VG57 RWWL 9797 1283 1395 7110","userid":21,"balance":760485.21},
{"iban":"LU64 348A SAII 86SD 4LMN","userid":10,"balance":425598.09},
{"iban":"GB24 ILFY 0948 7226 9927 62","userid":15,"balance":398843.3},
{"iban":"BE32 9184 7427 2024","userid":6,"balance":914068.0},
{"iban":"FR07 9583 5569 44TL ZQU5 CJFP G04","userid":22,"balance":505221.44},
{"iban":"SM36 B725 7942 334L QV85 9A8L POL","userid":22,"balance":903154.86},
{"iban":"SI30 0373 3865 1869 904","userid":9,"balance":679824.44},
{"iban":"KZ58 9709 U3TL U5GQ FM5K","userid":9,"balance":144223.97},
{"iban":"RS24 2961 9966 7192 4743 22","userid":15,"balance":353413.12},
{"iban":"FR55 1287 4990 47YK IGG1 T8LW 529","userid":2,"balance":7607.16},
{"iban":"AD24 9777 1496 B6R6 CT5I ZBIH","userid":9,"balance":965551.47},
{"iban":"NO73 1266 1482 834","userid":4,"balance":821867.15},
{"iban":"BR48 1152 1893 9617 9204 4437 076N 8","userid":20,"balance":211579.37},
{"iban":"FR97 0957 2675 04RA 02LX XQBL O82","userid":11,"balance":787238.39},
{"iban":"FR81 2603 6865 666O R78R UISY F27","userid":24,"balance":776959.8},
{"iban":"GI53 RVUW I6OR RMNF PP0J 5SY","userid":14,"balance":250741.1},
{"iban":"GE49 FE73 4836 8381 7392 56","userid":8,"balance":935820.06},
{"iban":"FR10 0733 0389 94YO IV8A INQ6 P86","userid":24,"balance":534565.19},
{"iban":"HR15 3631 0051 5604 8739 9","userid":9,"balance":826232.7},
{"iban":"FI45 2088 4317 2274 03","userid":27,"balance":128724.28},
{"iban":"DE58 1088 1306 5788 0296 45","userid":16,"balance":802294.37},
{"iban":"FR22 0252 7948 35C3 GSVS TUK6 Q38","userid":12,"balance":863899.87},
{"iban":"LB48 7969 L97D GCWZ ANKY XTKY ZTBW","userid":5,"balance":989679.18},
{"iban":"ES96 4019 6933 0837 6055 4763","userid":28,"balance":542584.62},
{"iban":"MT80 ELWG 5456 81GF CJO4 MSTY KM9D XAN","userid":3,"balance":811232.89},
{"iban":"BR24 9859 9324 1041 6149 3487 719D 3","userid":25,"balance":482575.77},
{"iban":"PS98 GVTF ZDXV 0Q3X GB4U Z8LT KVSZ 3","userid":15,"balance":52159.14},
{"iban":"FR51 1578 9792 62JD EETR BFQU M48","userid":15,"balance":467676.07},
{"iban":"PT89 1349 3129 1233 4605 4506 3","userid":29,"balance":377644.61}]